module gitlab.com/kolls/pg-crud

require (
	github.com/jackc/pgconn v1.10.0
	github.com/jackc/pgtype v1.8.1
	github.com/jackc/pgx/v4 v4.13.0
	github.com/jinzhu/copier v0.3.2
	github.com/ory/dockertest/v3 v3.7.0
	github.com/rs/xid v1.3.0
	github.com/stretchr/testify v1.7.0
	go.uber.org/zap v1.19.0
)

require (
	github.com/Azure/go-ansiterm v0.0.0-20170929234023-d6e3b3328b78 // indirect
	github.com/Microsoft/go-winio v0.4.14 // indirect
	github.com/Nvveen/Gotty v0.0.0-20120604004816-cd527374f1e5 // indirect
	github.com/cenkalti/backoff/v4 v4.1.0 // indirect
	github.com/containerd/continuity v0.0.0-20190827140505-75bee3e2ccb6 // indirect
	github.com/davecgh/go-spew v1.1.1 // indirect
	github.com/docker/cli v20.10.7+incompatible // indirect
	github.com/docker/docker v20.10.7+incompatible // indirect
	github.com/docker/go-connections v0.4.0 // indirect
	github.com/docker/go-units v0.4.0 // indirect
	github.com/gogo/protobuf v1.3.2 // indirect
	github.com/google/shlex v0.0.0-20191202100458-e7afc7fbc510 // indirect
	github.com/imdario/mergo v0.3.12 // indirect
	github.com/jackc/chunkreader/v2 v2.0.1 // indirect
	github.com/jackc/pgio v1.0.0 // indirect
	github.com/jackc/pgpassfile v1.0.0 // indirect
	github.com/jackc/pgproto3/v2 v2.1.1 // indirect
	github.com/jackc/pgservicefile v0.0.0-20200714003250-2b9c44734f2b // indirect
	github.com/konsorten/go-windows-terminal-sequences v1.0.2 // indirect
	github.com/mitchellh/mapstructure v1.4.1 // indirect
	github.com/moby/term v0.0.0-20201216013528-df9cb8a40635 // indirect
	github.com/opencontainers/go-digest v1.0.0-rc1 // indirect
	github.com/opencontainers/image-spec v1.0.1 // indirect
	github.com/opencontainers/runc v1.0.0-rc9 // indirect
	github.com/pkg/errors v0.9.1 // indirect
	github.com/pmezard/go-difflib v1.0.0 // indirect
	github.com/sirupsen/logrus v1.4.2 // indirect
	github.com/xeipuuv/gojsonpointer v0.0.0-20180127040702-4e3ac2762d5f // indirect
	github.com/xeipuuv/gojsonreference v0.0.0-20180127040603-bd5ef7bd5415 // indirect
	github.com/xeipuuv/gojsonschema v1.2.0 // indirect
	go.uber.org/atomic v1.7.0 // indirect
	go.uber.org/multierr v1.6.0 // indirect
	golang.org/x/crypto v0.0.0-20210711020723-a769d52b0f97 // indirect
	golang.org/x/net v0.0.0-20210226172049-e18ecbb05110 // indirect
	golang.org/x/sys v0.0.0-20210615035016-665e8c7367d1 // indirect
	golang.org/x/text v0.3.6 // indirect
	gopkg.in/yaml.v2 v2.3.0 // indirect
	gopkg.in/yaml.v3 v3.0.0-20210107192922-496545a6307b // indirect
)

go 1.17
